20100906	2010-10-10T00:00:00
20100907	2010-10-10T00:00:00
20100911	2010-10-10T00:00:00
20100912	2010-10-10T00:00:00
20100916	2010-10-10T00:00:00
20100917	2010-10-10T00:00:00
20100921	2010-10-10T00:00:00
20100922	2010-10-10T00:00:00
20101014	2010-10-10T00:00:00
20101107	2011-03-08T23:47:19
20101111	2011-03-08T23:47:19
20101112	2011-03-08T23:57:30
20101116	2011-03-08T23:57:30
20101219	2011-03-24T00:10:49
