im01    im02     0.000654 (0.000014, 45.8)
im01    im03     0.001208 (0.000004, 304.9)
im01    im04     0.001572 (0.000019, 84.3)
im02    im01     0.000415 (0.000011, 36.5)
im02    im03     0.001114 (0.000004, 287.4)
im02    im04     0.001269 (0.000015, 83.2)
im03    im01     0.000144 (0.000011, 13.6)
im03    im02     0.000268 (0.000015, 17.7)
im03    im04     0.000244 (0.000006, 41.0)
im04    im01     0.000988 (0.000013, 76.3)
im04    im02     0.000776 (0.000016, 49.7)
im04    im03     0.000539 (0.000004, 124.1)
im05    im06     0.000414 (0.000028, 14.7)
im05    im07     0.001369 (0.000009, 145.1)
im05    im08     0.002696 (0.000022, 122.6)
im06    im05     0.000187 (0.000016, 11.5)
im06    im07     0.000217 (0.000010, 21.6)
im06    im08     0.002017 (0.000010, 205.2)
im07    im05     0.001348 (0.000010, 136.9)
im07    im06     0.000782 (0.000015, 51.6)
im07    im08     0.000640 (0.000007, 87.4)
im08    im05     0.000031 (0.000019,  1.6)
im08    im06     0.000006 (0.000017,  0.3)
im08    im07     0.000012 (0.000010,  1.2)
im09    im10     0.000319 (0.000006, 57.6)
im09    im11     0.000301 (0.000015, 20.1)
im09    im12     0.000088 (0.000013,  6.6)
im10    im09     0.000179 (0.000006, 30.4)
im10    im11     0.000438 (0.000015, 29.1)
im10    im12     0.000135 (0.000003, 40.3)
im11    im09     0.001126 (0.000012, 92.8)
im11    im10     0.000352 (0.000006, 55.1)
im11    im12     0.000078 (0.000004, 21.9)
im12    im09     0.001860 (0.000005, 373.5)
im12    im10     0.001467 (0.000013, 111.9)
im12    im11     0.000150 (0.000018,  8.3)
im13    im14     0.000460 (0.000010, 48.2)
im13    im15     0.000791 (0.000008, 104.5)
im13    im16     0.000558 (0.000003, 166.1)
im14    im13     0.000232 (0.000012, 19.4)
im14    im15     0.002687 (0.000008, 316.6)
im14    im16     0.000163 (0.000003, 50.2)
im15    im13     0.000837 (0.000013, 64.5)
im15    im14     0.000108 (0.000006, 17.2)
im15    im16     0.000171 (0.000003, 58.4)
im16    im13     0.001464 (0.000007, 214.5)
im16    im14     0.001207 (0.000008, 154.6)
im16    im15     0.000357 (0.000008, 47.1)
